[
    {
        "model": "portfolio.customer",
        "pk": 1,
        "fields": {
            "name": "Oaken Shield",
            "description": "We need treasures!",
            "slug": "oaken-shield",
            "is_active": 1
        }
    },
    {
        "model": "portfolio.customer",
        "pk": 2,
        "fields": {
            "name": "Elves friend",
            "description": "We need peace!",
            "slug": "elves-friend",
            "is_active": 1
        }
    },

    {
        "model": "portfolio.job",
        "pk": 1,
        "fields": {
            "customer": 1,
            "description": "Killing orcs",
            "details_source": "I killed a lot of orcs recently.",
            "details": "I killed a lot of orcs recently.",
            "is_active": 1,
            "slug": "killing-orcs"
        }
    },
    {
        "model": "portfolio.job",
        "pk": 2,
        "fields": {
            "customer": 2,
            "description": "Stealing treasures",
            "details_source": "I'm an expert! A really good thief.",
            "details": "I'm an expert! A really good thief.",
            "is_active": 1,
            "slug": "stealing-treasures"
        }
    },
    {
        "model": "portfolio.job",
        "pk": 3,
        "fields": {
            "customer": 2,
            "description": "Cooking cakes...",
            "details_source": "My cake is awesome!",
            "details": "My cake is awesome!",
            "is_active": 1,
            "slug": "cooking-cookie"
        }
    }
]
